===============================================================================
MureDenoiseDetectorSettings Script Changelog
===============================================================================

-------------------------------------------------------------------------------
2020.05.08 - Version 1.3

- Add detector offset mode to support both calibrated and uncalibrated image
denoising.

- Update documentation and tooltips.

-------------------------------------------------------------------------------
2020.01.21 - Version 1.2

- Improve error messages.

-------------------------------------------------------------------------------
2019.11.26 - Version 1.1

- Initial release.

-------------------------------------------------------------------------------
